fv-beginner/ex-04-reqwalker/reqwalker.vcd
$comment Generated by nMigen $end
$date 2020-06-10 16:49:59.339321 $end
$timescale 100 ps $end
$scope module top $end
$scope module reqwalker $end
$var wire 1 0 o_busy $end
$var wire 4 1 state $end
$var wire 1 2 clk $end
$var wire 1 3 rst $end
$var string 1 4 fsm_state $end
$var wire 8 5 leds $end
$var wire 32 6 counter $end
$var wire 1 7 i_req $end
$upscope $end
$upscope $end
$enddefinitions $end
#0
$dumpvars
00
b0 1
02
03
sREADY/0 4
b11111111 5
b0 6
07
$end
#1250000000
12
17
#2500000000
02
#3750000000
12
sWALK1/1 4
07
b11111110 5
b1 1
10
#5000000000
02
#6250000000
12
b1 6
#7500000000
02
#8750000000
12
b10 6
#10000000000
02
#11250000000
12
b11 6
#12500000000
02
#13750000000
12
sWALK2/2 4
b0 6
b11111101 5
b10 1
#15000000000
02
#16250000000
12
b1 6
#17500000000
02
#18750000000
12
b10 6
#20000000000
02
#21250000000
12
b11 6
#22500000000
02
#23750000000
12
sWALK3/3 4
b0 6
b11111011 5
b11 1
#25000000000
02
#26250000000
12
b1 6
#27500000000
02
#28750000000
12
b10 6
#30000000000
02
#31250000000
12
b11 6
#32500000000
02
#33750000000
12
sWALK4/4 4
b0 6
b11110111 5
b100 1
#35000000000
02
#36250000000
12
b1 6
#37500000000
02
#38750000000
12
b10 6
#40000000000
02
#41250000000
12
b11 6
#42500000000
02
#43750000000
12
sWALK5/5 4
b0 6
b11101111 5
b101 1
#45000000000
02
#46250000000
12
b1 6
#47500000000
02
#48750000000
12
b10 6
#50000000000
02
#51250000000
12
b11 6
#52500000000
02
#53750000000
12
sWALK6/6 4
b0 6
b11011111 5
b110 1
#55000000000
02
#56250000000
12
b1 6
#57500000000
02
#58750000000
12
b10 6
#60000000000
02
#61250000000
12
b11 6
#62500000000
02
#63750000000
12
sWALK7/7 4
b0 6
b10111111 5
b111 1
#65000000000
02
#66250000000
12
b1 6
#67500000000
02
#68750000000
12
b10 6
#70000000000
02
#71250000000
12
b11 6
#72500000000
02
#73750000000
12
sWALK8/8 4
b0 6
b1111111 5
b1000 1
#75000000000
02
#76250000000
12
b1 6
#77500000000
02
#78750000000
12
b10 6
#80000000000
02
#81250000000
12
b11 6
#82500000000
02
#83750000000
12
sWALK9/9 4
b0 6
b10111111 5
b1001 1
#85000000000
02
#86250000000
12
b1 6
#87500000000
02
#88750000000
12
b10 6
#90000000000
02
#91250000000
12
b11 6
#92500000000
02
#93750000000
12
sWALK10/10 4
b0 6
b11011111 5
b1010 1
#95000000000
02
#96250000000
12
b1 6
#97500000000
02
#98750000000
12
b10 6
#100000000000
02
#101250000000
12
b11 6
#102500000000
02
#103750000000
12
sWALK11/11 4
b0 6
b11101111 5
b1011 1
#105000000000
02
#106250000000
12
b1 6
#107500000000
02
#108750000000
12
b10 6
#110000000000
02
#111250000000
12
b11 6
#112500000000
02
#113750000000
12
sWALK12/12 4
b0 6
b11110111 5
b1100 1
#115000000000
02
#116250000000
12
b1 6
#117500000000
02
#118750000000
12
b10 6
#120000000000
02
#121250000000
12
b11 6
#122500000000
02
#123750000000
12
sWALK13/13 4
b0 6
b11111011 5
b1101 1
#125000000000
02
#126250000000
12
b1 6
#127500000000
02
#128750000000
12
b10 6
#130000000000
02
#131250000000
12
b11 6
#132500000000
02
#133750000000
12
sWALK14/14 4
b0 6
b11111101 5
b1110 1
#135000000000
02
#136250000000
12
b1 6
#137500000000
02
#138750000000
12
b10 6
#140000000000
02
#141250000000
12
b11 6
#142500000000
02
#143750000000
12
sWALK15/15 4
b0 6
b11111110 5
b1111 1
#145000000000
02
#146250000000
12
b1 6
#147500000000
02
#148750000000
12
b10 6
#150000000000
02
#151250000000
12
b11 6
#152500000000
02
#153750000000
12
sREADY/0 4
b0 6
b11111111 5
b0 1
00
